Data Preparation
…
Code

# still a few

eu25games2019_clean |>
  filter(!is.na(cj_dict1_pl2)) |>
  group_by(meta_wave) |>
  count(meta_pid, sort = T) |>
  filter(n > 1)

# A tibble: 50 × 3
# Groups:   meta_wave [2]
   meta_wave meta_pid       n
       <dbl> <chr>      <int>
 1         3 1575599903     8
 2         2 <NA>           6
 3         2 1067766259     2
 4         2 1147353522     2
 5         2 1275872150     2
 6         2 1383958152     2
 7         2 1385201604     2
 8         2 1416296382     2
 9         2 1463470715     2
10         2 1476773133     2
# ℹ 40 more rows
…
